[
    {
      "_id": "5f6aaf1ba886def691d4ecc2",
      "id_usuario": 0,
      "nombres": "Desiree",
      "apellidos": "Watkins",
      "id_tipo_doc": 2,
      "numero_doc": 8,
      "email": "desiree.watkins@mail.org",
      "cuentas": [
        {
          "id_cuenta": 0,
          "tipo_cuenta": 1,
          "numero_cuenta": "9111462778439",
          "id_divisa": 1,
          "saldo": "3971.12",
          "tarjeta": [
            {
              "id_tarjeta": 0,
              "numero_tarjeta": "9342236605645234",
              "cod_seguridad": "966"
            }
          ],
          "movimientos": [
            {
              "id_moviento": 0,
              "fecha_operacion": "19/07/2020",
              "importe": "36.15"
            }
          ]
        },
        {
          "id_cuenta": 1,
          "tipo_cuenta": 3,
          "numero_cuenta": "8586920813054",
          "id_divisa": 2,
          "saldo": "3441.74",
          "tarjeta": [
            {
              "id_tarjeta": 0,
              "numero_tarjeta": "4674609939345398",
              "cod_seguridad": "871"
            }
          ],
          "movimientos": [
            {
              "id_moviento": 0,
              "fecha_operacion": "17/08/2016",
              "importe": "224.94"
            },
            {
              "id_moviento": 1,
              "fecha_operacion": "29/08/2019",
              "importe": "269.26"
            },
            {
              "id_moviento": 2,
              "fecha_operacion": "29/01/2019",
              "importe": "406.21"
            }
          ]
        }
      ],
      "login": {
        "username": "Eileen89",
        "password": "mpqhxqyn",
        "estado": false
      }
    },
    {
      "_id": "5f6aaf1bc4ea94b9004999ff",
      "id_usuario": 1,
      "nombres": "Mccullough",
      "apellidos": "Stephens",
      "id_tipo_doc": 3,
      "numero_doc": 8,
      "email": "mccullough.stephens@mail.me",
      "cuentas": [
        {
          "id_cuenta": 0,
          "tipo_cuenta": 4,
          "numero_cuenta": "6016986028699",
          "id_divisa": 3,
          "saldo": "3915.85",
          "tarjeta": [
            {
              "id_tarjeta": 0,
              "numero_tarjeta": "6504422850495661",
              "cod_seguridad": "791"
            }
          ],
          "movimientos": [
            {
              "id_moviento": 0,
              "fecha_operacion": "18/06/2019",
              "importe": "88.16"
            }
          ]
        },
        {
          "id_cuenta": 1,
          "tipo_cuenta": 2,
          "numero_cuenta": "6898428359323",
          "id_divisa": 3,
          "saldo": "2538.18",
          "tarjeta": [
            {
              "id_tarjeta": 0,
              "numero_tarjeta": "9708481887771214",
              "cod_seguridad": "352"
            }
          ],
          "movimientos": [
            {
              "id_moviento": 0,
              "fecha_operacion": "10/08/2020",
              "importe": "992.79"
            },
            {
              "id_moviento": 1,
              "fecha_operacion": "07/04/2016",
              "importe": "570.97"
            }
          ]
        }
      ],
      "login": {
        "username": "Aurelia41",
        "password": "eeqsq0nb",
        "estado": false
      }
    },
    {
      "_id": "5f6aaf1b97998a4d3067e861",
      "id_usuario": 2,
      "nombres": "Sherman",
      "apellidos": "Rivers",
      "id_tipo_doc": 2,
      "numero_doc": 8,
      "email": "sherman.rivers@mail.biz",
      "cuentas": [
        {
          "id_cuenta": 0,
          "tipo_cuenta": 3,
          "numero_cuenta": "3525586068629",
          "id_divisa": 2,
          "saldo": "1246.15",
          "tarjeta": [
            {
              "id_tarjeta": 0,
              "numero_tarjeta": "3837624286644247",
              "cod_seguridad": "138"
            }
          ],
          "movimientos": [
            {
              "id_moviento": 0,
              "fecha_operacion": "26/08/2016",
              "importe": "763.82"
            },
            {
              "id_moviento": 1,
              "fecha_operacion": "18/01/2017",
              "importe": "394.98"
            },
            {
              "id_moviento": 2,
              "fecha_operacion": "18/06/2014",
              "importe": "629.85"
            }
          ]
        },
        {
          "id_cuenta": 1,
          "tipo_cuenta": 2,
          "numero_cuenta": "8672811308762",
          "id_divisa": 2,
          "saldo": "3453.34",
          "tarjeta": [
            {
              "id_tarjeta": 0,
              "numero_tarjeta": "1751815578098393",
              "cod_seguridad": "823"
            }
          ],
          "movimientos": [
            {
              "id_moviento": 0,
              "fecha_operacion": "30/04/2018",
              "importe": "631.15"
            },
            {
              "id_moviento": 1,
              "fecha_operacion": "03/07/2018",
              "importe": "801.51"
            },
            {
              "id_moviento": 2,
              "fecha_operacion": "15/08/2018",
              "importe": "765.62"
            },
            {
              "id_moviento": 3,
              "fecha_operacion": "07/10/2014",
              "importe": "591.85"
            }
          ]
        },
        {
          "id_cuenta": 2,
          "tipo_cuenta": 1,
          "numero_cuenta": "6433821820876",
          "id_divisa": 2,
          "saldo": "3779.48",
          "tarjeta": [
            {
              "id_tarjeta": 0,
              "numero_tarjeta": "4078802193647860",
              "cod_seguridad": "570"
            }
          ],
          "movimientos": [
            {
              "id_moviento": 0,
              "fecha_operacion": "24/06/2017",
              "importe": 636
            },
            {
              "id_moviento": 1,
              "fecha_operacion": "11/06/2014",
              "importe": "500.46"
            },
            {
              "id_moviento": 2,
              "fecha_operacion": "29/01/2020",
              "importe": "230.84"
            },
            {
              "id_moviento": 3,
              "fecha_operacion": "19/09/2020",
              "importe": "365.82"
            }
          ]
        }
      ],
      "login": {
        "username": "Lydia85",
        "password": "fid693es",
        "estado": false
      }
    },
    {
      "_id": "5f6aaf1bf31389f611132fce",
      "id_usuario": 3,
      "nombres": "Pennington",
      "apellidos": "George",
      "id_tipo_doc": 3,
      "numero_doc": 8,
      "email": "pennington.george@mail.co.uk",
      "cuentas": [
        {
          "id_cuenta": 0,
          "tipo_cuenta": 2,
          "numero_cuenta": "8491943684530",
          "id_divisa": 2,
          "saldo": "3463.58",
          "tarjeta": [
            {
              "id_tarjeta": 0,
              "numero_tarjeta": "2060804971130582",
              "cod_seguridad": "686"
            }
          ],
          "movimientos": [
            {
              "id_moviento": 0,
              "fecha_operacion": "04/05/2019",
              "importe": "921.99"
            },
            {
              "id_moviento": 1,
              "fecha_operacion": "22/02/2018",
              "importe": "272.92"
            },
            {
              "id_moviento": 2,
              "fecha_operacion": "26/01/2019",
              "importe": "227.31"
            },
            {
              "id_moviento": 3,
              "fecha_operacion": "17/10/2015",
              "importe": "6.29"
            }
          ]
        }
      ],
      "login": {
        "username": "Rachelle13",
        "password": "jrl1u8fk",
        "estado": false
      }
    },
    {
      "_id": "5f6aaf1bcb1f6d23ecbcdb64",
      "id_usuario": 4,
      "nombres": "Guzman",
      "apellidos": "Robles",
      "id_tipo_doc": 4,
      "numero_doc": 8,
      "email": "guzman.robles@mail.info",
      "cuentas": [
        {
          "id_cuenta": 0,
          "tipo_cuenta": 3,
          "numero_cuenta": "6458583821507",
          "id_divisa": 2,
          "saldo": "2248.68",
          "tarjeta": [
            {
              "id_tarjeta": 0,
              "numero_tarjeta": "7592520363244970",
              "cod_seguridad": "212"
            }
          ],
          "movimientos": [
            {
              "id_moviento": 0,
              "fecha_operacion": "10/04/2017",
              "importe": "459.81"
            },
            {
              "id_moviento": 1,
              "fecha_operacion": "29/12/2016",
              "importe": "308.64"
            }
          ]
        },
        {
          "id_cuenta": 1,
          "tipo_cuenta": 2,
          "numero_cuenta": "9521658963280",
          "id_divisa": 3,
          "saldo": "1236.93",
          "tarjeta": [
            {
              "id_tarjeta": 0,
              "numero_tarjeta": "3633442434825771",
              "cod_seguridad": "945"
            }
          ],
          "movimientos": [
            {
              "id_moviento": 0,
              "fecha_operacion": "28/09/2014",
              "importe": "145.97"
            },
            {
              "id_moviento": 1,
              "fecha_operacion": "29/06/2014",
              "importe": "912.57"
            },
            {
              "id_moviento": 2,
              "fecha_operacion": "06/02/2015",
              "importe": "118.46"
            },
            {
              "id_moviento": 3,
              "fecha_operacion": "10/08/2018",
              "importe": "168.78"
            }
          ]
        },
        {
          "id_cuenta": 2,
          "tipo_cuenta": 3,
          "numero_cuenta": "8233549146123",
          "id_divisa": 2,
          "saldo": "2574.58",
          "tarjeta": [
            {
              "id_tarjeta": 0,
              "numero_tarjeta": "9469773901004512",
              "cod_seguridad": "715"
            }
          ],
          "movimientos": [
            {
              "id_moviento": 0,
              "fecha_operacion": "08/10/2014",
              "importe": "73.91"
            },
            {
              "id_moviento": 1,
              "fecha_operacion": "01/06/2014",
              "importe": "996.59"
            },
            {
              "id_moviento": 2,
              "fecha_operacion": "27/03/2019",
              "importe": "809.35"
            },
            {
              "id_moviento": 3,
              "fecha_operacion": "06/07/2016",
              "importe": "657.48"
            },
            {
              "id_moviento": 4,
              "fecha_operacion": "28/05/2014",
              "importe": "58.44"
            }
          ]
        }
      ],
      "login": {
        "username": "Hodge71",
        "password": "qdj84uyk",
        "estado": false
      }
    },
    {
      "_id": "5f6aaf1be07f534873985798",
      "id_usuario": 5,
      "nombres": "Concepcion",
      "apellidos": "Beasley",
      "id_tipo_doc": 1,
      "numero_doc": 8,
      "email": "concepcion.beasley@mail.com",
      "cuentas": [
        {
          "id_cuenta": 0,
          "tipo_cuenta": 1,
          "numero_cuenta": "944462187453",
          "id_divisa": 3,
          "saldo": "3639.05",
          "tarjeta": [
            {
              "id_tarjeta": 0,
              "numero_tarjeta": "9786634757858948",
              "cod_seguridad": "167"
            }
          ],
          "movimientos": [
            {
              "id_moviento": 0,
              "fecha_operacion": "31/08/2020",
              "importe": "177.78"
            },
            {
              "id_moviento": 1,
              "fecha_operacion": "20/08/2020",
              "importe": "166.47"
            }
          ]
        },
        {
          "id_cuenta": 1,
          "tipo_cuenta": 4,
          "numero_cuenta": "1797051171560",
          "id_divisa": 1,
          "saldo": "3234.26",
          "tarjeta": [
            {
              "id_tarjeta": 0,
              "numero_tarjeta": "6924330241323083",
              "cod_seguridad": "610"
            }
          ],
          "movimientos": [
            {
              "id_moviento": 0,
              "fecha_operacion": "27/03/2018",
              "importe": "521.6"
            },
            {
              "id_moviento": 1,
              "fecha_operacion": "25/09/2018",
              "importe": "209.29"
            },
            {
              "id_moviento": 2,
              "fecha_operacion": "01/10/2014",
              "importe": "505.33"
            }
          ]
        }
      ],
      "login": {
        "username": "Cantrell96",
        "password": "9cmdefrl",
        "estado": false
      }
    },
    {
      "_id": "5f6aaf1bca60859a7a3ad45c",
      "id_usuario": 6,
      "nombres": "Morton",
      "apellidos": "Reynolds",
      "id_tipo_doc": 1,
      "numero_doc": 8,
      "email": "morton.reynolds@mail.biz",
      "cuentas": [
        {
          "id_cuenta": 0,
          "tipo_cuenta": 1,
          "numero_cuenta": "9222513152235",
          "id_divisa": 3,
          "saldo": "3864.45",
          "tarjeta": [
            {
              "id_tarjeta": 0,
              "numero_tarjeta": "402059990350190",
              "cod_seguridad": "998"
            }
          ],
          "movimientos": [
            {
              "id_moviento": 0,
              "fecha_operacion": "16/01/2018",
              "importe": "135.49"
            },
            {
              "id_moviento": 1,
              "fecha_operacion": "23/02/2017",
              "importe": "808.65"
            }
          ]
        },
        {
          "id_cuenta": 1,
          "tipo_cuenta": 3,
          "numero_cuenta": "9928103124344",
          "id_divisa": 1,
          "saldo": "2469.95",
          "tarjeta": [
            {
              "id_tarjeta": 0,
              "numero_tarjeta": "2566161252681465",
              "cod_seguridad": "955"
            }
          ],
          "movimientos": [
            {
              "id_moviento": 0,
              "fecha_operacion": "11/04/2017",
              "importe": "89.93"
            }
          ]
        }
      ],
      "login": {
        "username": "Tracey91",
        "password": "ofrvcv07",
        "estado": false
      }
    },
    {
      "_id": "5f6aaf1becb540d4cc144dd7",
      "id_usuario": 7,
      "nombres": "Chapman",
      "apellidos": "Bridges",
      "id_tipo_doc": 1,
      "numero_doc": 8,
      "email": "chapman.bridges@mail.net",
      "cuentas": [
        {
          "id_cuenta": 0,
          "tipo_cuenta": 4,
          "numero_cuenta": "3140318434567",
          "id_divisa": 1,
          "saldo": "3987.24",
          "tarjeta": [
            {
              "id_tarjeta": 0,
              "numero_tarjeta": "5490972099972153",
              "cod_seguridad": "170"
            }
          ],
          "movimientos": [
            {
              "id_moviento": 0,
              "fecha_operacion": "02/07/2017",
              "importe": "62.68"
            },
            {
              "id_moviento": 1,
              "fecha_operacion": "05/08/2014",
              "importe": "273.64"
            },
            {
              "id_moviento": 2,
              "fecha_operacion": "18/04/2019",
              "importe": "869.6"
            }
          ]
        }
      ],
      "login": {
        "username": "Coleman83",
        "password": "r98sdmhn",
        "estado": false
      }
    },
    {
      "_id": "5f6aaf1b5c4a664f3573ef89",
      "id_usuario": 8,
      "nombres": "Constance",
      "apellidos": "Holloway",
      "id_tipo_doc": 4,
      "numero_doc": 8,
      "email": "constance.holloway@mail.name",
      "cuentas": [
        {
          "id_cuenta": 0,
          "tipo_cuenta": 1,
          "numero_cuenta": "4560047695691",
          "id_divisa": 1,
          "saldo": "2331.2",
          "tarjeta": [
            {
              "id_tarjeta": 0,
              "numero_tarjeta": "3852424455230462",
              "cod_seguridad": "344"
            }
          ],
          "movimientos": [
            {
              "id_moviento": 0,
              "fecha_operacion": "24/12/2014",
              "importe": "222.38"
            },
            {
              "id_moviento": 1,
              "fecha_operacion": "25/09/2019",
              "importe": "817.74"
            },
            {
              "id_moviento": 2,
              "fecha_operacion": "20/05/2015",
              "importe": "543.73"
            }
          ]
        }
      ],
      "login": {
        "username": "Eve90",
        "password": "5jdf2yrx",
        "estado": false
      }
    },
    {
      "_id": "5f6aaf1b6367540f1e8c00ba",
      "id_usuario": 9,
      "nombres": "Lina",
      "apellidos": "Ayala",
      "id_tipo_doc": 1,
      "numero_doc": 8,
      "email": "lina.ayala@mail.us",
      "cuentas": [
        {
          "id_cuenta": 0,
          "tipo_cuenta": 4,
          "numero_cuenta": "8111916286819",
          "id_divisa": 2,
          "saldo": "2692.92",
          "tarjeta": [
            {
              "id_tarjeta": 0,
              "numero_tarjeta": "5304600190534930",
              "cod_seguridad": "973"
            }
          ],
          "movimientos": [
            {
              "id_moviento": 0,
              "fecha_operacion": "23/06/2016",
              "importe": "135.93"
            },
            {
              "id_moviento": 1,
              "fecha_operacion": "20/12/2018",
              "importe": "412.96"
            },
            {
              "id_moviento": 2,
              "fecha_operacion": "15/07/2015",
              "importe": "536.18"
            }
          ]
        }
      ],
      "login": {
        "username": "Kathryn49",
        "password": "5ge8nn7o",
        "estado": false
      }
    }
  ]